<svg xmlns="http://www.w3.org/2000/svg" xmlns:xlink="http://www.w3.org/1999/xlink" version="1.1" id="Layer_1" x="0px" y="0px" width="100px" height="100px" viewBox="0 0 100 100" enable-background="new 0 0 100 100" xml:space="preserve">
<g id="Captions">
</g>
<g id="Your_Icon">
	<path fill="#000000" d="M8.675,72.188l-5.711-3.291V59.12c0,0,4.066-11.521,4.26-11.037c0.193,0.484-0.533-1.21,0-1.791   c0.532-0.581,3.339,3.436,3.582,3.339c0.242-0.097,0.532,0.194,0.919-0.048c0.387-0.242,0.307,0.177,0.387-0.242   c0.081-0.419-4.211-3.808-3.92-4.485c0.29-0.677,2.291-0.807,2.678-1.064c0.387-0.259-0.129-1.292,0.742-1.872   c0.872-0.581,2.679-0.29,3.356-0.613c0.677-0.323,1.258-1.839,0.936-2.324c-0.323-0.484-2.098-0.226-2.13,0.194   c-0.032,0.419-0.774,0.549-0.903,0.193c-0.129-0.354-0.226-0.686-0.549-0.649c-0.323,0.036,0.42-0.319,0.775-0.932   c0.355-0.613,0.516-2.453,0.419-2.743c-0.097-0.291-0.097-1.162,0.258-1.485c0.355-0.323,1.259-0.806,1.42-0.646   c0.162,0.162,0.322,0.807-0.097,1.291c-0.42,0.484,0.129,2.711,0.613,2.646c0.484-0.064,1.775-0.419,1.904-1.226   c0.129-0.807,0.742-2.227,0-2.227c-0.742,0-1.258,0.387-1.709-0.033c-0.453-0.419-0.614-0.936-0.42-1.355   c0.193-0.419,0.613-2.678,0.903-2.678c0.291,0,1.872,1.872,2.356,1.646c0.483-0.226-0.646-1.388,0-1.646   c0.645-0.258,1.968,0.903,2.033,0.516c0.065-0.387-2.13-1.226-2.549-1.291s-0.548-0.613,0.484-0.677   c1.033-0.064,1.972-0.097,2.067-0.355c0.095-0.258,3.451-3.485,4.387-3.679c0.936-0.193,2.033-0.452,2.065,0   c0.032,0.452-1.033,0.807-0.129,1.194c0.903,0.387,0.387-1.065,0.871-1.065c0.484,0,2.162,0.452,2.42,1.42   c0.258,0.968,0.774,2.904,0.258,3.84c-0.517,0.936-1.71,3.098-2.969,3.13c-1.259,0.032-1.839-0.323-1.839-0.452   s-0.355,1.162,0.226,1.226c0.581,0.065,0.806-0.387,1.323-0.162c0.516,0.227,0.581,2.259,0.097,2.84   c-0.484,0.581,0.839-0.581,1.162-1.323c0.322-0.743,0.645,0.581,0.871,1.097c0.226,0.517,0.968,1.194,1.033,0.452   c0.064-0.742-1.582-2.097-1.775-2.484c-0.194-0.387-0.355-0.71,0.452-1.162s1.291-0.387,1.839-0.903   c0.548-0.516,1.646-2.065,1.775-2.582c0.129-0.516-0.71-1.323-0.904-2.13c-0.194-0.806,0.484-0.839,0.742-0.548   c0.258,0.291,2.711,0.71,3.356,0.291c0.646-0.419,1.097-2.471,2.13-2.929c1.032-0.459,2.258-0.007,3.484-1.363   c1.227-1.355,4.131-3.291,5.421-3.227s3.291-0.193,3.355,0.323s-0.967,0.839,0,0.968c0.968,0.129,0.968-1.291,1.291-0.903   c0.323,0.388,8.648,4.646,6.776,9.81c0,0-2.065,3.904-3.55,3.937c-1.483,0.032-2.581,2.13-1.516,2.323   c1.063,0.194,0.578-0.645,1.322-1c0.741-0.355,1.354-0.291,1.645-0.581c0.291-0.291,2.551-2.227,2.615-2.678   c0.063-0.453-0.193-1.227,0.289-1.517c0.483-0.291,1.969-0.291,2.291,0.129c0.323,0.419,1.711,1.646,1.774,1.968   c0.065,0.323,0.161-0.516,0.71-0.516s0.902,0.548,1.42,0.581c0.516,0.032,1.26,0.064,1.227,0.516c-0.033,0.452-2.064,2-2.388,1.936   s-0.839,0.162-0.55,0.42c0.291,0.258,0.711,0.193,0.809,0.581c0.096,0.387-0.809,1.323-0.55,1.323c0.261,0,0.774-0.064,0.937-0.258   c0.16-0.193-0.226-1.387,0.16-1.645c0.389-0.258,1.065-1.065,1.323-1.194c0.259-0.129,0.679-1.839,1.001-2.129   c0.322-0.291,1.227-0.969,1.969-1.033c0.741-0.064,1.483-0.354,1.678,0.646c0.193,1,0.226,1.484,0.84,2.097   c0.613,0.613,1.742,1.258,2.031,1.484c0.291,0.226,0.065,0.678-0.289,0.839c-0.355,0.161,0.839-0.42,1.42-0.227   c0.58,0.194,1.227,1.194,1.451,1.936c0.227,0.743,2.871,2.065,3.389,2.13s2.809,0.387,3.259,0.161   c0.452-0.226,0.97-2.194,2.033-2.452c1.065-0.258,4.68-0.291,5.292,0.452c0.611,0.743,1.29,3.033,1.71,3.292   c0.42,0.258,0.517,0.129,0.612,0.483c0.099,0.355-0.579,1.13,0.388,0.936c0.969-0.193,1.743-0.162,2.483,0.387   c0.744,0.548,3.066,0.677,3.261,1.097c0.194,0.419-3.646,7.52-3.519,8.131c0.129,0.613,1.938-0.031,2.26,0.194   c0.322,0.226,0,2.259,0,2.259s-0.129-0.809-0.612-0.839c-0.483-0.032-0.613,0.192-0.84,0.774c-0.226,0.58-1.903,0-2.484,0.129   c-0.58,0.129-0.258,0.678-0.741,0.482c-0.483-0.191-0.453,0.774-1.55,0.84c-1.097,0.064-2.063-0.549-2.646-0.807   c-0.58-0.259-0.969,0.549-1.323,0.354c-0.354-0.192,0.099-0.838-0.192-1.031s-4.97,0.258-5.195,0.516   c-0.228,0.26-12.166,3.453-13.553,3.971c-1.389,0.517-5.164,2.807-5.681,3.258s-0.678,0.484-1.03,0.098   c-0.355-0.387-2.1-2.581-1.55-3.841c0,0,1.937,0.098,2.063,0.13c0.129,0.031-1.064-1.678-1.58-1.646   c-0.518,0.032-0.613,1.129-0.613,1.129s-0.646,1.549-0.42,2.293c0.227,0.74-1.839,0.32-1.839,0.32s-0.839,0.711-0.58,1.098   c0.258,0.389,0.258,0.809,0.646,0.679c0.387-0.129,0.742-1.677,1.969-0.937c1.227,0.742,2.098,1.354,1.517,1.903   c-0.582,0.549-1.903,2.033-2.937,1.71c-1.033-0.32-1.291-1.064-1.484-1.064c-0.194,0,0.193,3.551-0.29,3.229   s-0.97-1.389-1.323-1.389c-0.355,0,0.322,1.098-0.031,1.033c-0.355-0.064-0.711-1.162-1.322-1.227   c-0.614-0.064-2.131-0.162-3.389,0.773c-1.26,0.937-1.808-0.032-2.454-0.354c-0.646-0.321-1.549-0.001-1.872,0.517   c-0.323,0.518-0.709-0.031-0.774-0.193c-0.064-0.161-5.647-3.42-5.647-3.42s-1.291,2.388-1.678,2.388   c-0.387,0-4.711-3.065-4.711-3.065s0.936-1.226,1.194-1.162c0.258,0.065,3.162,1.775,3.162,1.775s0.613-0.71,0.646-1.031   c0.032-0.324-2.517-1.485-2.517-1.485s-0.258-0.581-0.097-0.679c0.161-0.097,0.516-0.482,0.452-0.645   c-0.064-0.162-1.678-1.773-1.678-2s-0.484-0.969-0.646-1.098c-0.161-0.129-1.549-0.227-1.581,0.354   c-0.033,0.581-0.484-1.451,0.064-1.807c0.548-0.354-1.452-1.194-1.872-0.84c-0.419,0.354-0.742,1.389-0.387,1.613   c0.355,0.226,1.452,1.904,1.646,1.937c0.194,0.032,0.742,0.228,0.936-0.031c0.193-0.26,0.936-1.001,1.355,0.097   c0.419,1.097,0.807,1.549-0.678,1.612c-1.484,0.065-1.581-0.45-1.581-0.774c0-0.321-0.226,0.228-0.677,0.259   c-0.452,0.032-2.518-0.343-2.674-0.718c-0.157-0.375-0.617-2.021-0.254-2.371c0.363-0.352,1.44-1.803,1.44-2.493   c0-0.688,0.392-4.356-1.158-4.743c-1.549-0.388-0.129,2.453,0.194,3.162c0.322,0.71,0.452,2.775-0.969,3.873   c0,0-0.645,0.902-0.193,1.613c0.452,0.709,0.903,1.677,0.387,1.483c-0.516-0.194-1.807-2.389-3.614-2.13   c-1.807,0.258-0.774,1.355-0.774,1.613s-1.162,0.129-1.549-0.258c-0.387-0.389-1.033-1.808-1.872-0.646c0,0,1.162,1.742-1.742,1.42   c0,0-0.258-2.13-0.71-2.259c-0.452-0.13-0.322,2.13-0.193,2.321c0.129,0.195-0.258,0.518-0.581,0.518   c-0.322,0-1.355-1.161-1.355-1.161l-0.064-0.968l-0.903,0.064l0.193,1.097l0.969,1.161l-1.614,1.55c0,0-0.258-0.129-0.387-0.646   c-0.129-0.518-0.968-0.841-1.42-0.711c-0.452,0.129-0.774-0.451-0.774-0.451s-0.452-1.162-0.774-0.84   c-0.323,0.323-0.581-0.258-0.387-0.517c0.194-0.258,1.743-1.549,1.743-1.549s0.064-0.968-0.581-0.388   c-0.645,0.582-1.452,1.42-1.452,1.42l-0.774-0.679c0,0,1.033-1.192,1.129-1.192c0.096,0,0.258-0.517,0.258-0.517   s-0.484-0.483-0.807-0.129c-0.323,0.354-0.872,1.226-0.872,1.226L8,54.08l-1.032,1.064l3.453,5.422c0,0,0.258,1.388-0.226,1.774   c-0.484,0.388-4.583,3.226-4.583,3.226S9.966,71.734,8.675,72.188z"/>
	<path fill="#000000" d="M47.445,67.589l4.985,4.065c0,0,1.452-1.258,1.549-1.064c0.098,0.194,1.114-1.984,0.775-2.227   c-0.339-0.243-0.775-0.146-1.404,0.048s-0.822-0.097-1.259-0.193c-0.435-0.097-0.655,0.437-0.957,0.241   c-0.302-0.191-2.044-1.451-2.044-1.451s-1.936-0.242-2.227,0C46.574,67.25,47.445,67.589,47.445,67.589z"/>
	<path fill="#000000" d="M50.98,66.898l0.627-0.666c0,0,1.113-0.436,1.308,0c0.192,0.437,1.597,1.308,1.354,1.451   c-0.242,0.146-0.889,0.582-1.631,0.194C51.896,67.492,50.98,66.898,50.98,66.898z"/>
	<path fill="#000000" d="M11.515,66.04c0,0,1.355,1.437,1.678,2.599c0.323,1.161,3.097,3.483,3.292,3.549   c0.193,0.064,1.097,0.322,1.452-0.227s2.13-2.129,2.13-2.129s0.032-2.195-0.581-2.614c-0.613-0.419-1.808-1.178-1.808-1.178   s0.033-0.468,0.194-0.63c0.162-0.16,0.549-0.516,0.549-0.516l0.806,0.58l1.065-0.033v1.229c0,0,0.581,2.387,0.904,2.227   c0.322-0.162,3.71-1.193,3.84-1.937c0.129-0.743-1.807-1.292-1.807-1.292s0.646-1.062,1.129-0.902c0,0-0.016,0.661,0.355,0.758   c0.371,0.098,1.662,0.92,1.71,1.049c0.048,0.131,0.888,0.098,1.291-0.531c0.403-0.63,0.92-0.889,0.113-1.146   c-0.807-0.258-0.258-0.547-0.081-0.597c0.178-0.048,1.484,0.437,1.662,0.42c0.178-0.016,2.114-0.42,2.114-1.112   c0-0.693-1.178-1.098-1.952-1.065l-1.355-1.129c0,0-0.064-1.563-1.082-1.662c-1.016-0.097-0.823,0.228-1.388,0.21   c-0.564-0.016-1.516-0.258-1.549-0.37c-0.032-0.112-0.952-0.098-1.097,0.289c-0.146,0.388,0.419,0.888,0.452,0.937   c0.033,0.049-0.29,0.854,0.323,1.518c0,0,0.516,0.273,0.532,0.518c0.017,0.24-0.564,0.676-0.742,0.467   c-0.177-0.209-1.081-2.194-1.516-2.049c-0.436,0.146-1.194,0.855-1.162,1.178c0.032,0.322-0.436,0.902-0.823,0.742l-0.839,0.709   l-0.903-0.611l1.484-1.518c0,0,0.758-1.822,1.227-1.76c0,0-2.082-0.273-2.937,0.18c-0.855,0.451-5.938,3.969-5.938,3.969   S11.224,64.959,11.515,66.04z"/>
</g>
</svg>