<svg xmlns="http://www.w3.org/2000/svg" xmlns:xlink="http://www.w3.org/1999/xlink" version="1.1" id="Layer_1" x="0px" y="0px" width="100px" height="100px" viewBox="0 0 100 100" enable-background="new 0 0 100 100" xml:space="preserve">
<g>
	<g>
		<path fill-rule="evenodd" clip-rule="evenodd" d="M49.755,10.941c-23.662,0-42.842,18.278-42.842,41.94    s19.18,41.039,42.842,41.039c23.662,0,43.745-17.377,43.745-41.039S73.417,10.941,49.755,10.941z M66.438,28.733l9.137,9.272    l-9.179,9.201l-9.179-9.157L66.438,28.733z M33.909,28.922l9.248,9.046l-9.403,9.426l-8.844-9.383L33.909,28.922z M49.34,61.451    c-16.351-0.177-17.314,17.5-31.251,1.359c-1.839-2.128-0.758-4.792,1.275-5.003c2.043-0.212,2.72,1.521,3.657,3.305    c5.789,11.027,15.002-5.511,26.319-5.511c13.062,0,22.791,17.049,28.819,4.946c0.771-1.549,1.906-3.133,3.508-2.548    c2.284,0.834,1.816,3.014,0.925,4.401C71.666,79.352,66.314,61.634,49.34,61.451z"/>
	</g>
</g>
</svg>